{
	"name": "Баланс (12 міс.)",
	"size": {"rows": null, "cols": 4},
	"table": [
		["Баланс", "Січ", "Лют", "Бер", "Кві", "Тра", "Чер", "Лип", "Сер", "Вер", "Жов", "Лис", "Гру"],
		["Оборотні активи"],
			["Готівка", "", "", "", "", "", "", "0", "0", "0", "3000", "10800", "26300"],
			["Дебіторська заборгованість", "", "", "", "", "", "", "", "", "", "", "", ""],
			["Інвентаризація", "", "", "", "", "", "", "", "", "", "", "", ""],
			["Витрати майбутніх періодів", "", "", "", "", "", "", "", "", "", "", "", ""],
			["Короткострокові інвестиції", "", "", "", "", "", "", "61200", "18500", "6700", "", "", ""],
		["Усього поточних активів", 
				"=SUM(`2_1`:`6_1`)", "=SUM(`2_2`:`6_2`)", "=SUM(`2_3`:`6_3`)", 
				"=SUM(`2_4`:`6_4`)", "=SUM(`2_5`:`6_5`)", "=SUM(`2_6`:`6_6`)",
				"=SUM(`2_7`:`6_7`)", "=SUM(`2_8`:`6_8`)", "=SUM(`2_9`:`6_9`)", 
				"=SUM(`2_10`:`6_10`)", "=SUM(`2_11`:`6_11`)", "=SUM(`2_12`:`6_12`)"],
		["Фіксовані (довгострокові) активи"],
			["Довгострокові інвестиції", "", "", "", "", "", "", "", "", "", "", "", ""],
			["Майно, устаткування та обладнання", "", "", "", "", "", "", "30000", "10000", "", "", "", ""],
			["(Мінус накопичена амортизація)", "", "", "", "", "", "", "", "", "", "", "", ""],
			["Нематеріальні активи", "", "", "", "", "", "", "", "", "", "", "", ""],
		["Усього фіксованих активів", 
				"=SUM(`9_1`:`12_1`)", "=SUM(`9_2`:`12_2`)", "=SUM(`9_3`:`12_3`)",
				"=SUM(`9_4`:`12_4`)", "=SUM(`9_5`:`12_5`)", "=SUM(`9_6`:`12_6`)",
				"=SUM(`9_7`:`12_7`)", "=SUM(`9_8`:`12_8`)", "=SUM(`9_9`:`12_9`)", 
				"=SUM(`9_10`:`61210`)", "=SUM(`9_11`:`61211`)", "=SUM(`9_12`:`61212`)"],
		["Інші активи"],
			["Відстрочений податок на прибуток", "", "", "", "", "", "", "", "", "", "", "", ""],
			["Інший", "", "", "", "", "", "", "", "", "", "", "", ""],
		["Усього інших активів", 
			"=SUM(`15_1`:`16_1`)", "=SUM(`15_2`:`16_2`)", "=SUM(`15_3`:`16_3`)",
			"=SUM(`15_4`:`16_4`)", "=SUM(`15_5`:`16_5`)", "=SUM(`15_6`:`16_6`)",
			"=SUM(`15_7`:`16_7`)", "=SUM(`15_8`:`16_8`)", "=SUM(`15_9`:`16_9`)", 
			"=SUM(`15_10`:`16_10`)", "=SUM(`15_11`:`16_11`)", "=SUM(`15_12`:`16_12`)"],
		["Сукупні активи", 
			"=`7_1`+`13_1`+`17_1`", "=`7_2`+`13_2`+`17_2`", "=`7_3`+`13_3`+`17_3`",
			"=`7_4`+`13_4`+`17_4`", "=`7_5`+`13_5`+`17_5`", "=`7_6`+`13_6`+`17_6`",
			"=`7_7`+`13_7`+`17_7`", "=`7_8`+`13_8`+`17_8`", "=`7_9`+`13_9`+`17_9`",
			"=`7_10`+`13_10`+`17_10`", "=`7_11`+`13_11`+`17_11`", "=`7_12`+`13_12`+`17_12`"],
		["Поточні зобов'язання"],
			["Кредиторська заборгованість", "", "", "", "", "", "", "", "", "", "", "", ""],
			["Короткострокові позики", "", "", "", "", "", "", "", "", "", "", "", ""],
			["Податок на прибуток, що підлягає сплаті", "", "", "", "", "", "", "", "", "", "", "", ""],
			["Нарахована заробітна плата", "", "", "", "", "", "", "", "", "", "", "", ""],
			["Непідготовлений дохід", "", "", "", "", "", "", "", "", "", "", "", ""],
			["Поточна частина довгострокового боргу", "", "", "", "", "", "", "", "", "", "", "", ""],
		["Усього поточних зобов'язань", 
			"=SUM(`20_1`:`25_1`)", "=SUM(`20_2`:`25_2`)", "=SUM(`20_3`:`25_3`)",
			"=SUM(`20_4`:`25_4`)", "=SUM(`20_5`:`25_5`)", "=SUM(`20_6`:`25_6`)",
			"=SUM(`20_7`:`25_7`)", "=SUM(`20_8`:`25_8`)", "=SUM(`20_9`:`25_9`)", 
			"=SUM(`20_10`:`25_10`)", "=SUM(`20_11`:`25_11`)", "=SUM(`20_12`:`25_12`)"],
		["Довгострокові зобов'язання"],
			["Довгостроковий борг", "", "", "", "", "", "", "", "", "", "", "", ""],
			["Відстрочений податок на прибуток", "", "", "", "", "", "", "", "", "", "", "", ""],
			["Інші", "", "", "", "", "", "", "", "", "", "", "", ""],
		["Усього довгострокових зобов'язань", 
			"=SUM(`28_1`:`30_1`)", "=SUM(`28_2`:`30_2`)", "=SUM(`28_3`:`30_3`)",
			"=SUM(`28_4`:`30_4`)", "=SUM(`28_5`:`30_5`)", "=SUM(`28_6`:`30_6`)",
			"=SUM(`28_7`:`30_7`)", "=SUM(`28_8`:`30_8`)", "=SUM(`28_9`:`30_9`)", 
			"=SUM(`28_10`:`30_10`)", "=SUM(`28_11`:`30_11`)", "=SUM(`28_12`:`30_12`)"],
		["Власний капітал"],
			["Інвестиції власника", "", "", "", "", "", "", "", "", "", "", "", ""],
			["Нерозподілений прибуток", "", "", "", "", "", "", "-61200", "-18500", "-6700", "3000", "10800", "26300"],
			["Інший", "", "", "", "", "", "", "", "", "", "", "", ""],
		["Загальна сума капіталу власника", 
			"=SUM(`33_1`:`35_1`)", "=SUM(`33_2`:`35_2`)", "=SUM(`33_3`:`35_3`)",
			"=SUM(`33_4`:`35_4`)", "=SUM(`33_5`:`35_5`)", "=SUM(`33_6`:`35_6`)",
			"=SUM(`33_7`:`35_7`)", "=SUM(`33_8`:`35_8`)", "=SUM(`33_9`:`35_9`)", 
			"=SUM(`33_10`:`35_10`)", "=SUM(`33_11`:`35_11`)", "=SUM(`33_12`:`35_12`)"],
		["Загальна сума зобов'язань та власного капіталу", 
			"=`26_1`+`31_1`+`36_1`", "=`26_2`+`31_2`+`36_2`", "=`26_3`+`31_3`+`36_3`",
			"=`26_4`+`31_4`+`36_4`", "=`26_5`+`31_5`+`36_5`", "=`26_6`+`31_6`+`36_6`",
			"=`26_7`+`31_7`+`36_7`", "=`26_8`+`31_8`+`36_8`", "=`26_9`+`31_9`+`36_9`",
			"=`26_10`+`31_10`+`36_10`", "=`26_11`+`31_11`+`36_11`", "=`26_12`+`31_12`+`36_12`"]
	]
}
