{
    "_id" : ObjectId("5abb7181a841e64bbf4204be"),
    "title" : "Бізнес План",
    "categories" : [
        {
            "category_title" : "Титульна сторінка",
            "category_type" : "title_page",
            "category_about" : "",
            "subcategories" : [
                {
                    "subcategory_title" : "Інформація титульної сторінки",
                    "subcategory_about" : "",
                    "subcategory_fields" : [
                        {
                            "field_title" : "Тег",
                            "field_type" : "textarea",
                            "field_data" : ""
                        },
                        {
                            "field_title" : "Дата створення",
                            "field_type" : "input-date",
                            "field_data" : ""
                        },
                        {
                            "field_title" : "Контактна інформація",
                            "field_type" : "textarea",
                            "field_data" : ""
                        }
                    ]
                }
            ]
        }, 
        {
            "category_title" : "Резюме",
            "category_type" : "",
            "category_about" : "",
            "subcategories" : [
                {
                    "subcategory_title" : "Можливості",
                    "subcategory_about" : "",
                    "subcategory_fields" : [
                        {
                            "field_title" : "Резюме проблем",
                            "field_type" : "textarea",
                            "field_data" : ""
                        }, 
                        {
                            "field_title" : "Резюме рішень",
                            "field_type" : "textarea",
                            "field_data" : ""
                        }, 
                        {
                            "field_title" : "Ринок",
                            "field_type" : "textarea",
                            "field_data" : ""
                        }, 
                        {
                            "field_title" : "Конкуренція",
                            "field_type" : "textarea",
                            "field_data" : ""
                        }, 
                        {
                            "field_title" : "Чому ми?",
                            "field_type" : "textarea",
                            "field_data" : ""
                        }
                    ]
                }, 
                {
                    "subcategory_title" : "Очікування",
                    "subcategory_about" : "",
                    "subcategory_fields" : [
                        {
                            "field_title" : "Прогноз",
                            "field_type" : "textarea",
                            "field_data" : ""
                        },
                        {
                            "field_title" : "Фінансові показники за роком",
                            "field_type" : "textarea",
                            "field_data" : ""
                        },
                        {
                            "field_title" : "Фінансування потреби",
                            "field_type" : "textarea",
                            "field_data" : ""
                        }
                    ]
                }
            ]
        }, 
        {
            "category_title" : "Можливості",
            "category_type" : "",
            "category_about" : "",
            "subcategories" : [
                {
                    "subcategory_title" : "Проблеми і Рішення",
                    "subcategory_about" : "",
                    "subcategory_fields" : [
                        {
                            "field_title" : "Вирішення проблеми",
                            "field_type" : "textarea",
                            "field_data" : ""
                        }, 
                        {
                            "field_title" : "Наше рішення",
                            "field_type" : "textarea",
                            "field_data" : ""
                        }
                    ]
                }, 
                {
                    "subcategory_title" : "Цільовий ринок",
                    "subcategory_about" : "",
                    "subcategory_fields" : [
                        {
                            "field_title" : "Розмір ринку та Сегменти",
                            "field_type" : "textarea",
                            "field_data" : ""
                        }
                    ]
                }, 
                {
                    "subcategory_title" : "Конкуренція",
                    "subcategory_about" : "",
                    "subcategory_fields" : [
                        {
                            "field_title" : "Поточні альтернативи",
                            "field_type" : "textarea",
                            "field_data" : ""
                        }, 
                        {
                            "field_title" : "Наші переваги",
                            "field_type" : "textarea",
                            "field_data" : ""
                        }
                    ]
                }
            ]
        }, 
        {
            "category_title" : "Виконання",
            "category_type" : "",
            "category_about" : "",
            "subcategories" : [
                {
                    "subcategory_title" : "Маркетинг та Продажі",
                    "subcategory_about" : "",
                    "subcategory_fields" : [
                        {
                            "field_title" : "План маркетингу",
                            "field_type" : "textarea",
                            "field_data" : ""
                        }, 
                        {
                            "field_title" : "План продаж",
                            "field_type" : "textarea",
                            "field_data" : ""
                        }
                    ]
                }, 
                {
                    "subcategory_title" : "Операції",
                    "subcategory_about" : "",
                    "subcategory_fields" : [
                        {
                            "field_title" : "Місця та Об’єкти",
                            "field_type" : "textarea",
                            "field_data" : ""
                        }, 
                        {
                            "field_title" : "Технології",
                            "field_type" : "textarea",
                            "field_data" : ""
                        }, 
                        {
                            "field_title" : "Обладнання та Інструменти",
                            "field_type" : "textarea",
                            "field_data" : ""
                        }
                    ]
                }, 
                {
                    "subcategory_title" : "Основні етапи та Показники",
                    "subcategory_about" : "",
                    "subcategory_fields" : [
                        {
                            "field_title" : "Основні етапи",
                            "field_type" : "textarea",
                            "field_data" : ""
                        }, 
                        {
                            "field_title" : "Ключові показники",
                            "field_type" : "textarea",
                            "field_data" : ""
                        }
                    ]
                }
            ]
        }, 
        {
            "category_title" : "Компанія",
            "category_type" : "",
            "category_about" : "",
            "subcategories" : [
                {
                    "subcategory_title" : "Огляд",
                    "subcategory_about" : "",
                    "subcategory_fields" : [
                        {
                            "field_title" : "",
                            "field_type" : "textarea",
                            "field_data" : ""
                        }
                    ]
                }, 
                {
                    "subcategory_title" : "Команда",
                    "subcategory_about" : "",
                    "subcategory_fields" : [
                        {
                            "field_title" : "Управлінська команда",
                            "field_type" : "textarea",
                            "field_data" : ""
                        }, 
                        {
                            "field_title" : "Радники",
                            "field_type" : "textarea",
                            "field_data" : ""
                        }
                    ]
                }
            ]
        }, 
        {
            "category_title" : "Фінансовий план",
            "category_type" : "",
            "category_about" : "",
            "subcategories" : [
                {
                    "subcategory_title" : "Прогноз",
                    "subcategory_about" : "",
                    "subcategory_fields" : [
                        {
                            "field_title" : "Основні припущення",
                            "field_type" : "textarea",
                            "field_data" : ""
                        }, 
                        {
                            "field_title" : "Доходи за місяцями",
                            "field_type" : "chart",
                            "field_data" : {
                                "title": "Доходи за місяцями",
                                "labels": ["Січ", "Лют", "Бер", "Кві", "Тра", "Чер", "Лип", "Сер", "Вер", "Жов", "Лис", "Гру"],
                                "data": [10000, 11000, 12000, 13000, 14000, 17000, 17500, 20000, 21000, 21500, 21000, 25000]
                            }
                        }, 
                        {
                            "field_title" : "Витрати за місяцями",
                            "field_type" : "chart",
                            "field_data" : {
                                "title": "Витрати за місяцями",
                                "labels": ["Січ", "Лют", "Бер", "Кві", "Тра", "Чер", "Лип", "Сер", "Вер", "Жов", "Лис", "Гру"],
                                "data": [1000, 1100, 1200, 1300, 1400, 1700, 1750, 2000, 2100, 2150, 2100, 2500]
                            }
                        }, 
                        {
                            "field_title" : "Чисті прибутки (або збитки) за роками",
                            "field_type" : "chart",
                            "field_data" : {
                                "title": "Чисті прибутки (або збитки) за роками",
                                "labels": [2018, 2019, 2020],
                                "data": [182700, 200000, 250000]
                            }
                        }
                    ]
                }, 
                {
                    "subcategory_title" : "Фінансування",
                    "subcategory_about" : "",
                    "subcategory_fields" : [
                        {
                            "field_title" : "Використання коштів",
                            "field_type" : "textarea",
                            "field_data" :""
                        }, 
                        {
                            "field_title" : "Джерела коштів",
                            "field_type" : "textarea",
                            "field_data" :""
                        }
                    ]
                }, 
                {
                    "subcategory_title" : "Твердження",
                    "subcategory_about" : "",
                    "subcategory_fields" : [
                        {
                            "field_title" : "Прогнозовані прибутки і збитки (3 роки)",
                            "field_type" : "table",
                            "field_data" : {
                                "name" : "Прибутки і Збитки (3 роки)",
                                "size" : {
                                    "rows" : null,
                                    "cols" : 4
                                },
                                "table" : [
                                    [
                                        "Прибутки (збитки)", 
                                        "2018", 
                                        "2019", 
                                        "2020"
                                    ], 
                                    [
                                        "Дохід (продажі)"
                                    ], 
                                    [
                                        "Категорія 1", 
                                        "", 
                                        "", 
                                        ""
                                    ], 
                                    [
                                        "Категорія 2", 
                                        "", 
                                        "", 
                                        ""
                                    ], 
                                    [
                                        "Загальна сума доходів (продажів)", 
                                        "=SUM(`2_1`:`3_1`)", 
                                        "=SUM(`2_2`:`3_2`)", 
                                        "=SUM(`2_3`:`3_3`)"
                                    ], 
                                    [
                                        "Собівартість реалізованої продукції"
                                    ], 
                                    [
                                        "Категорія 1", 
                                        "", 
                                        "", 
                                        ""
                                    ], 
                                    [
                                        "Категорія 2", 
                                        "", 
                                        "", 
                                        ""
                                    ], 
                                    [
                                        "Сукупна собівартість реалізованої продукції", 
                                        "=SUM(`6_1`:`7_1`)", 
                                        "=SUM(`6_2`:`7_2`)", 
                                        "=SUM(`6_3`:`7_3`)"
                                    ], 
                                    [
                                        "Валовий (загальний) прибуток", 
                                        "=`4_1`-`8_1`", 
                                        "=`4_2`-`8_2`", 
                                        "=`4_3`-`8_3`"
                                    ], 
                                    [
                                        "Витрати"
                                    ], 
                                    [
                                        "Витрати на заробітну плату", 
                                        "", 
                                        "", 
                                        ""
                                    ], 
                                    [
                                        "Зовнішні послуги", 
                                        "", 
                                        "", 
                                        ""
                                    ], 
                                    [
                                        "Матеріали (офісні та операційні)", 
                                        "", 
                                        "", 
                                        ""
                                    ], 
                                    [
                                        "Ремонт і технічне обслуговування", 
                                        "", 
                                        "", 
                                        ""
                                    ], 
                                    [
                                        "Реклама", 
                                        "", 
                                        "", 
                                        ""
                                    ], 
                                    [
                                        "Автомобіль, доставка та проїзд", 
                                        "", 
                                        "", 
                                        ""
                                    ], 
                                    [
                                        "Бухгалтерські та юридичні", 
                                        "", 
                                        "", 
                                        ""
                                    ], 
                                    [
                                        "Оренда та пов'язані з цим витрати", 
                                        "", 
                                        "", 
                                        ""
                                    ], 
                                    [
                                        "Телефон", 
                                        "", 
                                        "", 
                                        ""
                                    ], 
                                    [
                                        "Комунальні послуги", 
                                        "", 
                                        "", 
                                        ""
                                    ], 
                                    [
                                        "Страхування", 
                                        "", 
                                        "", 
                                        ""
                                    ], 
                                    [
                                        "Податки (нерухомість та ін.)", 
                                        "", 
                                        "", 
                                        ""
                                    ], 
                                    [
                                        "витрати на сплату відсотків", 
                                        "", 
                                        "", 
                                        ""
                                    ], 
                                    [
                                        "Амортизація", 
                                        "", 
                                        "", 
                                        ""
                                    ], 
                                    [
                                        "Інші витрати (вкажіть)", 
                                        "", 
                                        "", 
                                        ""
                                    ], 
                                    [
                                        "Інші витрати (вкажіть)", 
                                        "", 
                                        "", 
                                        ""
                                    ], 
                                    [
                                        "Інші витрати (вкажіть)", 
                                        "", 
                                        "", 
                                        ""
                                    ], 
                                    [
                                        "Різне (не вказано)", 
                                        "", 
                                        "", 
                                        ""
                                    ], 
                                    [
                                        "Сумарні витрати", 
                                        "=SUM(`11_1`:`28_1`)", 
                                        "=SUM(`11_2`:`28_2`)", 
                                        "=SUM(`11_3`:`28_3`)"
                                    ], 
                                    [
                                        "Резерв на непередбачені витрати", 
                                        "=`29_1`*0.1", 
                                        "=`29_2`*0.1", 
                                        "=`29_3`*0.1"
                                    ], 
                                    [
                                        "Загальні витрати", 
                                        "=`29_1`+`30_1`", 
                                        "=`29_2`+`30_2`", 
                                        "=`29_3`+`30_3`"
                                    ], 
                                    [
                                        "Чистий прибуток до оподаткування", 
                                        "=`9_1`-`31_1`", 
                                        "=`9_2`-`31_2`", 
                                        "=`9_3`-`31_3`"
                                    ], 
                                    [
                                        "Вхідні податки", 
                                        "", 
                                        "", 
                                        ""
                                    ], 
                                    [
                                        "Чистий операційний дохід", 
                                        "=`9_1`-`33_1`-`31_1`", 
                                        "=`9_2`-`33_2`-`31_2`", 
                                        "=`9_3`-`33_3`-`31_3`"
                                    ]
                                ]
                            }
                        }, 
                        {
                            "field_title" : "Прогнозований баланс (3 роки)",
                            "field_type" : "table",
                            "field_data" : {
                                "name" : "Прогнозований баланс (3 роки)",
                                "size" : {
                                    "rows" : null,
                                    "cols" : 4
                                },
                                "table" : [
                                    [
                                        "Прогнозований баланс", 
                                        "2018", 
                                        "2019", 
                                        "2020"
                                    ], 
                                    [
                                        "Оборотні активи"
                                    ], 
                                    [
                                        "Готівка", 
                                        "", 
                                        "", 
                                        ""
                                    ], 
                                    [
                                        "Дебіторська заборгованість", 
                                        "", 
                                        "", 
                                        ""
                                    ], 
                                    [
                                        "Інвентаризація", 
                                        "", 
                                        "", 
                                        ""
                                    ], 
                                    [
                                        "Інші оборотні активи", 
                                        "", 
                                        "", 
                                        ""
                                    ], 
                                    [
                                        "Загальна сума оборотний активів", 
                                        "=SUM(`2_1`:`5_1`)", 
                                        "=SUM(`2_2`:`5_2`)", 
                                        "=SUM(`2_3`:`5_3`)"
                                    ], 
                                    [
                                        "Довгострокові активи"
                                    ], 
                                    [
                                        "Довгострокові активи", 
                                        "", 
                                        "", 
                                        ""
                                    ], 
                                    [
                                        "Накопичена амортизація", 
                                        "", 
                                        "", 
                                        ""
                                    ], 
                                    [
                                        "Загальна сума довгострокових активів", 
                                        "=`8_1`-`9_1`", 
                                        "=`8_2`-`9_2`", 
                                        "=`8_3`-`9_3`"
                                    ], 
                                    [
                                        "Сума сукупних активів", 
                                        "=`6_1`+`10_1`", 
                                        "=`6_2`+`10_2`", 
                                        "=`6_3`+`10_3`"
                                    ], 
                                    [
                                        "Поточні зобов'язання"
                                    ], 
                                    [
                                        "Кредиторська заборгованість", 
                                        "", 
                                        "", 
                                        ""
                                    ], 
                                    [
                                        "Податки на прибуток, що підлягають сплаті", 
                                        "", 
                                        "", 
                                        ""
                                    ], 
                                    [
                                        "Податки з продажу, що підлягають сплаті", 
                                        "", 
                                        "", 
                                        ""
                                    ], 
                                    [
                                        "Короткостроковий борг", 
                                        "", 
                                        "", 
                                        ""
                                    ], 
                                    [
                                        "Дохід від передоплати", 
                                        "", 
                                        "", 
                                        ""
                                    ], 
                                    [
                                        "Загальна сума поточних зобов'язань", 
                                        "=SUM(`13_1`:`17_1`)", 
                                        "=SUM(`13_2`:`17_2`)", 
                                        "=SUM(`13_3`:`17_3`)"
                                    ], 
                                    [
                                        "Довгостроковий борг", 
                                        "", 
                                        "", 
                                        ""
                                    ], 
                                    [
                                        "Загальна сума зобов'язань", 
                                        "=`18_1`+`19_1`", 
                                        "=`18_2`+`19_2`", 
                                        "=`18_3`+`19_3`"
                                    ], 
                                    [
                                        "Власний капітал"
                                    ], 
                                    [
                                        "Сплачений капітал", 
                                        "", 
                                        "", 
                                        ""
                                    ], 
                                    [
                                        "Нерозподілені прибутки", 
                                        "", 
                                        "", 
                                        ""
                                    ], 
                                    [
                                        "Заробіток", 
                                        "", 
                                        "", 
                                        ""
                                    ], 
                                    [
                                        "Загальна сума власного капіталу", 
                                        "=SUM(`22_1`:`24_1`)", 
                                        "=SUM(`22_2`:`24_2`)", 
                                        "=SUM(`22_3`:`24_3`)"
                                    ], 
                                    [
                                        "Загальна сума зобов'язань та капіталу", 
                                        "=`20_1`+`25_1`", 
                                        "=`20_2`+`25_2`", 
                                        "=`20_3`+`25_3`"
                                    ]
                                ]
                            }
                        }, 
                        {
                            "field_title" : "Прогнозний рух грошових коштів (3 роки)",
                            "field_type" : "table",
                            "field_data" : {
                                "name" : "Грошовий потік (3 роки)",
                                "size" : {
                                    "rows" : null,
                                    "cols" : 4
                                },
                                "table" : [
                                    [
                                        "Грошовий потік", 
                                        "2018", 
                                        "2019", 
                                        "2020"
                                    ], 
                                    [
                                        "Готівка на початку року", 
                                        "", 
                                        "", 
                                        ""
                                    ], 
                                    [
                                        "Операції"
                                    ], 
                                    [
                                        "Готівкові надходження від клієнтів", 
                                        "", 
                                        "", 
                                        ""
                                    ], 
                                    [
                                        "Інвентаризація закупівель", 
                                        "", 
                                        "", 
                                        ""
                                    ], 
                                    [
                                        "Загальні операційні та адміністративні витрати", 
                                        "", 
                                        "", 
                                        ""
                                    ], 
                                    [
                                        "Витрати на оплату праці", 
                                        "", 
                                        "", 
                                        ""
                                    ], 
                                    [
                                        "Відсоткові операції", 
                                        "", 
                                        "", 
                                        ""
                                    ], 
                                    [
                                        "Вхідні податки", 
                                        "", 
                                        "", 
                                        ""
                                    ], 
                                    [
                                        "Чистий грошовий потік від операцій", 
                                        "=SUM(`3_1`:`8_1`)", 
                                        "=SUM(`3_2`:`8_2`)", 
                                        "=SUM(`3_3`:`8_3`)"
                                    ], 
                                    [
                                        "Інвестиційна діяльність"
                                    ], 
                                    [
                                        "Продаж майна та обладнання", 
                                        "", 
                                        "", 
                                        ""
                                    ], 
                                    [
                                        "Збір основної суми за позиками", 
                                        "", 
                                        "", 
                                        ""
                                    ], 
                                    [
                                        "Продаж інвестиційних цінних паперів", 
                                        "", 
                                        "", 
                                        ""
                                    ], 
                                    [
                                        "Купівля майна та обладнання", 
                                        "", 
                                        "", 
                                        ""
                                    ], 
                                    [
                                        "Надання позик іншим суб'єктам господарювання", 
                                        "", 
                                        "", 
                                        ""
                                    ], 
                                    [
                                        "Купівля інвестиційних цінних паперів", 
                                        "", 
                                        "", 
                                        ""
                                    ], 
                                    [
                                        "Чистий грошовий потік від інвестиційної діяльності", 
                                        "=SUM(`11_1`:`16_1`)", 
                                        "=SUM(`11_2`:`16_3`)", 
                                        "=SUM(`11_2`:`16_3`)"
                                    ], 
                                    [
                                        "Фінансова діяльність"
                                    ], 
                                    [
                                        "Випуск акцій", 
                                        "", 
                                        "", 
                                        ""
                                    ], 
                                    [
                                        "Запозичення", 
                                        "", 
                                        "", 
                                        ""
                                    ], 
                                    [
                                        "Викуп акцій (казначейський)", 
                                        "", 
                                        "", 
                                        ""
                                    ], 
                                    [
                                        "Погашення кредитів", 
                                        "", 
                                        "", 
                                        ""
                                    ], 
                                    [
                                        "Дивіденди", 
                                        "", 
                                        "", 
                                        ""
                                    ], 
                                    [
                                        "Чистий грошовий потік від фінансової діяльності", 
                                        "=SUM(`19_1`:`23_1`)", 
                                        "=SUM(`19_2`:`23_2`)", 
                                        "=SUM(`19_3`:`23_3`)"
                                    ], 
                                    [
                                        "Чисте збільшення готівки", 
                                        "=`9_1`+`17_1`+`24_1`", 
                                        "=`9_2`+`17_2`+`24_2`", 
                                        "=`9_3`+`17_3`+`24_3`"
                                    ], 
                                    [
                                        "Готівка наприкінці року", 
                                        "=`1_1`+`25_1`", 
                                        "=`1_2`+`25_2`", 
                                        "=`1_3`+`25_3`"
                                    ]
                                ]
                            }
                        }
                    ]
                }
            ]
        }, 
        {
            "category_title" : "Додаток",
            "category_type" : "",
            "category_about" : "",
            "subcategories" : [
                {
                    "subcategory_title" : "Прибутки і Збитки",
                    "subcategory_about" : "",
                    "subcategory_fields" : [
                        {
                            "field_title" : "Прибутки і Збитки (12 міс.)",
                            "field_type" : "table",
                            "field_data":
                            {
    "name": "Прибутки і Збитки (12 міс.)",
    "size": {"rows": null, "cols": 13},
    "table": [
        ["Прибутки (збитки)", "Січ", "Лют", "Бер", "Кві", "Тра", "Чер", "Лип", "Сер", "Вер", "Жов", "Лис", "Гру"],
        ["Дохід (продажі)"],
            ["Категорія 1", "", "", "", "", "", "", "", "", "", "", "", ""],
            ["Категорія 2", "", "", "", "", "", "", "", "", "", "", "", ""],
        ["Загальна сума доходів (продажів)", 
            "=SUM(`2_1`:`3_1`)", "=SUM(`2_2`:`3_2`)", "=SUM(`2_3`:`3_3`)", "=SUM(`2_4`:`3_4`)", 
            "=SUM(`2_5`:`3_5`)", "=SUM(`2_6`:`3_6`)", "=SUM(`2_7`:`3_7`)", "=SUM(`2_8`:`3_8`)", 
            "=SUM(`2_9`:`3_9`)", "=SUM(`2_10`:`3_10`)", "=SUM(`2_11`:`3_11`)", "=SUM(`2_12`:`3_12`)"],
        ["Собівартість реалізованої продукції"],
            ["Категорія 1", "", "", "", "", "", "", "", "", "", "", "", ""],
            ["Категорія 2", "", "", "", "", "", "", "", "", "", "", "", ""],
        ["Сукупна собівартість реалізованої продукції", 
            "=SUM(`6_1`:`7_1`)", "=SUM(`6_2`:`7_2`)", "=SUM(`6_3`:`7_3`)", "=SUM(`6_4`:`7_4`)", 
            "=SUM(`6_5`:`7_5`)", "=SUM(`6_6`:`7_6`)", "=SUM(`6_7`:`7_7`)", "=SUM(`6_8`:`7_8`)", 
            "=SUM(`6_9`:`7_9`)", "=SUM(`6_10`:`7_10`)", "=SUM(`6_11`:`7_11`)", "=SUM(`6_12`:`7_12`)"],
        ["Валовий (загальний) прибуток", 
            "=`4_1`-`8_1`", "=`4_2`-`8_2`", "=`4_3`-`8_3`", "=`4_4`-`8_4`", 
            "=`4_5`-`8_5`", "=`4_6`-`8_6`", "=`4_7`-`8_7`", "=`4_8`-`8_8`", 
            "=`4_9`-`8_9`", "=`4_10`-`8_10`", "=`4_11`-`8_11`", "=`4_12`-`8_12`"],
        ["Витрати"],
            ["Витрати на заробітну плату", "", "", "", "", "", "", "", "", "", "", "", ""],
            ["Зовнішні послуги", "", "", "", "", "", "", "", "", "", "", "", ""],
            ["Матеріали (офісні та операційні)", "", "", "", "", "", "", "", "", "", "", "", ""],
            ["Ремонт і технічне обслуговування", "", "", "", "", "", "", "", "", "", "", "", ""],
            ["Реклама", "", "", "", "", "", "", "", "", "", "", "", ""],
            ["Автомобіль, доставка та проїзд", "", "", "", "", "", "", "", "", "", "", "", ""],
            ["Бухгалтерські та юридичні", "", "", "", "", "", "", "", "", "", "", "", ""],
            ["Оренда та пов'язані з цим витрати", "", "", "", "", "", "", "", "", "", "", "", ""],
            ["Телефон", "", "", "", "", "", "", "", "", "", "", "", ""],
            ["Комунальні послуги", "", "", "", "", "", "", "", "", "", "", "", ""],
            ["Страхування", "", "", "", "", "", "", "", "", "", "", "", ""],
            ["Податки (нерухомість та ін.)", "", "", "", "", "", "", "", "", "", "", "", ""],
            ["витрати на сплату відсотків", "", "", "", "", "", "", "", "", "", "", "", ""],
            ["Амортизація", "", "", "", "", "", "", "", "", "", "", "", ""],
            ["Інші витрати (вкажіть)", "", "", "", "", "", "", "", "", "", "", "", ""],
            ["Інші витрати (вкажіть)", "", "", "", "", "", "", "", "", "", "", "", ""],
            ["Інші витрати (вкажіть)", "", "", "", "", "", "", "", "", "", "", "", ""],
            ["Різне (не вказано)", "", "", "", "", "", "", "", "", "", "", "", ""],
        ["Сумарні витрати",
            "=SUM(`11_1`:`28_1`)", "=SUM(`11_2`:`28_2`)", "=SUM(`11_3`:`28_3`)", "=SUM(`11_4`:`28_4`)", 
            "=SUM(`11_5`:`28_5`)", "=SUM(`11_6`:`28_6`)", "=SUM(`11_7`:`28_7`)", "=SUM(`11_8`:`28_8`)", 
            "=SUM(`11_9`:`28_9`)", "=SUM(`11_10`:`28_10`)", "=SUM(`11_11`:`28_11`)", "=SUM(`11_12`:`28_12`)"],
        ["Резерв на непередбачені витрати", 
            "=`29_1`*0.1", "=`29_2`*0.1", "=`29_3`*0.1", "=`29_4`*0.1", 
            "=`29_5`*0.1", "=`29_6`*0.1", "=`29_7`*0.1", "=`29_8`*0.1", 
            "=`29_9`*0.1", "=`29_10`*0.1", "=`29_11`*0.1", "=`29_12`*0.1"],
        ["Загальні витрати",
            "=`29_1`+`30_1`", "=`29_2`+`30_2`", "=`29_3`+`30_3`", "=`29_4`+`30_4`", 
            "=`29_5`+`30_5`", "=`29_6`+`30_6`", "=`29_7`+`30_7`", "=`29_8`+`30_8`", 
            "=`29_9`+`30_9`", "=`29_10`+`30_10`", "=`29_11`+`30_11`", "=`29_12`+`30_12`"],
        ["Чистий прибуток до оподаткування", 
            "=`9_1`-`31_1`", "=`9_2`-`31_2`", "=`9_3`-`31_3`", "=`9_4`-`31_4`",
            "=`9_5`-`31_5`", "=`9_6`-`31_6`", "=`9_7`-`31_7`", "=`9_8`-`31_8`",
            "=`9_9`-`31_9`", "=`9_10`-`31_10`", "=`9_11`-`31_11`", "=`9_12`-`31_12`"],
        ["Вхідні податки", "", "", "", "", "", "", "", "", "", "", "", ""],
        ["Чистий операційний дохід", 
            "=`9_1`-`33_1`-`31_1`", "=`9_2`-`33_2`-`31_2`", "=`9_3`-`33_3`-`31_3`", "=`9_4`-`33_4`-`31_4`", 
            "=`9_5`-`33_5`-`31_5`", "=`9_6`-`33_6`-`31_6`", "=`9_7`-`33_7`-`31_7`", "=`9_8`-`33_8`-`31_8`", 
            "=`9_9`-`33_9`-`31_9`", "=`9_10`-`33_10`-`31_10`", "=`9_11`-`33_11`-`31_11`", "=`9_12`-`33_12`-`31_12`"]
    ]
}
                        }
                    ]
                }, 
                {
                    "subcategory_title" : "Балансовий звіт",
                    "subcategory_about" : "",
                    "subcategory_fields" : [
                        {
                            "field_title" : "Балансовий звіт (12 міс.)",
                            "field_type" : "table",
                            "field_data":
                            {
    "name": "Прогнозований баланс (12 міс.)",
    "size": {"rows": null, "cols": 13},
    "table": [
        ["Прогнозований баланс", "Січ", "Лют", "Бер", "Кві", "Тра", "Чер", "Лип", "Сер", "Вер", "Жов", "Лис", "Гру"],
        ["Оборотні активи"],
            ["Готівка", "", "", "", "", "", "", "", "", "", "", "", ""],
            ["Дебіторська заборгованість", "", "", "", "", "", "", "", "", "", "", "", ""],
            ["Інвентаризація", "", "", "", "", "", "", "", "", "", "", "", ""],
            ["Інші оборотні активи", "", "", "", "", "", "", "", "", "", "", "", ""],
        ["Загальна сума оборотний активів",
            "=SUM(`2_1`:`5_1`)", "=SUM(`2_2`:`5_2`)", "=SUM(`2_3`:`5_3`)", 
            "=SUM(`2_4`:`5_4`)", "=SUM(`2_5`:`5_5`)", "=SUM(`2_6`:`5_6`)", 
            "=SUM(`2_7`:`5_7`)", "=SUM(`2_8`:`5_8`)", "=SUM(`2_9`:`5_9`)", 
            "=SUM(`2_10`:`5_10`)", "=SUM(`2_11`:`5_11`)", "=SUM(`2_12`:`5_12`)"],
        ["Довгострокові активи"],
            ["Довгострокові активи", "", "", "", "", "", "", "", "", "", "", "", ""],
            ["Накопичена амортизація", "", "", "", "", "", "", "", "", "", "", "", ""],
        ["Загальна сума довгострокових активів", 
            "=`8_1`-`9_1`", "=`8_2`-`9_2`", "=`8_3`-`9_3`", 
            "=`8_4`-`9_4`", "=`8_5`-`9_5`", "=`8_6`-`9_6`", 
            "=`8_7`-`9_7`", "=`8_8`-`9_8`", "=`8_9`-`9_9`", 
            "=`8_10`-`9_10`", "=`8_11`-`9_11`", "=`8_12`-`9_12`"],
        ["Сума сукупних активів", 
            "=`6_1`+`10_1`", "=`6_2`+`10_2`", "=`6_3`+`10_3`", 
            "=`6_4`+`10_4`", "=`6_5`+`10_5`", "=`6_6`+`10_6`", 
            "=`6_7`+`10_7`", "=`6_8`+`10_8`", "=`6_9`+`10_9`", 
            "=`6_10`+`10_10`", "=`6_11`+`10_11`", "=`6_12`+`10_12`"],

        ["Поточні зобов'язання"],
            ["Кредиторська заборгованість", "", "", "", "", "", "", "", "", "", "", "", ""],
            ["Податки на прибуток, що підлягають сплаті", "", "", "", "", "", "", "", "", "", "", "", ""],
            ["Податки з продажу, що підлягають сплаті", "", "", "", "", "", "", "", "", "", "", "", ""],
            ["Короткостроковий борг", "", "", "", "", "", "", "", "", "", "", "", ""],
            ["Дохід від передоплати", "", "", "", "", "", "", "", "", "", "", "", ""],
        ["Загальна сума поточних зобов'язань", 
            "=SUM(`13_1`:`17_1`)", "=SUM(`13_2`:`17_2`)", "=SUM(`13_3`:`17_3`)", 
            "=SUM(`13_4`:`17_4`)", "=SUM(`13_5`:`17_5`)", "=SUM(`13_6`:`17_6`)", 
            "=SUM(`13_7`:`17_7`)", "=SUM(`13_8`:`17_8`)", "=SUM(`13_9`:`17_9`)", 
            "=SUM(`13_10`:`17_10`)", "=SUM(`13_11`:`17_11`)", "=SUM(`13_12`:`17_12`)"],
            ["Довгостроковий борг", "", "", "", "", "", "", "", "", "", "", "", ""],
        ["Загальна сума зобов'язань", 
            "=`18_1`+`19_1`", "=`18_2`+`19_2`", "=`18_3`+`19_3`", 
            "=`18_4`+`19_4`", "=`18_5`+`19_5`", "=`18_6`+`19_6`", 
            "=`18_7`+`19_7`", "=`18_8`+`19_8`", "=`18_9`+`19_9`", 
            "=`18_10`+`19_10`", "=`18_11`+`19_11`", "=`18_12`+`19_12`"],
        ["Власний капітал"],
            ["Сплачений капітал", "", "", "", "", "", "", "", "", "", "", "", ""],
            ["Нерозподілені прибутки", "", "", "", "", "", "", "", "", "", "", "", ""],
            ["Заробіток", "", "", "", "", "", "", "", "", "", "", "", ""],
        ["Загальна сума власного капіталу", 
            "=SUM(`22_1`:`24_1`)", "=SUM(`22_2`:`24_2`)", "=SUM(`22_3`:`24_3`)", 
            "=SUM(`22_4`:`24_4`)", "=SUM(`22_5`:`24_5`)", "=SUM(`22_6`:`24_6`)", 
            "=SUM(`22_7`:`24_7`)", "=SUM(`22_8`:`24_8`)", "=SUM(`22_9`:`24_9`)", 
            "=SUM(`22_10`:`24_10`)", "=SUM(`22_11`:`24_11`)", "=SUM(`22_12`:`24_12`)"],
        ["Загальна сума зобов'язань та капіталу", 
            "=`20_1`+`25_1`", "=`20_2`+`25_2`", "=`20_3`+`25_3`", 
            "=`20_4`+`25_4`", "=`20_5`+`25_5`", "=`20_6`+`25_6`", 
            "=`20_7`+`25_7`", "=`20_8`+`25_8`", "=`20_9`+`25_9`", 
            "=`20_10`+`25_10`", "=`20_11`+`25_11`", "=`20_12`+`25_12`"]
    ]
}

                        }
                    ]
                }, 
                {
                    "subcategory_title" : "Грошовий потік",
                    "subcategory_about" : "",
                    "subcategory_fields" : [
                        {
                            "field_title" : "Грошовий потік (12 міс.)",
                            "field_type" : "table",
                            "field_data":
                            {
    "name": "Грошовий потік (12 міс.)",
    "size": {"rows": null, "cols": 13},
    "table": [
        ["Грошовий потік", "Січ", "Лют", "Бер", "Кві", "Тра", "Чер", "Лип", "Сер", "Вер", "Жов", "Лис", "Гру"],
        ["Готівка на початку року", "", "", "", "", "", "", "", "", "", "", "", ""],
        ["Операції"],
            ["Готівкові надходження від клієнтів", "", "", "", "", "", "", "", "", "", "", "", ""],
            ["Інвентаризація закупівель", "", "", "", "", "", "", "", "", "", "", "", ""],
            ["Загальні операційні та адміністративні витрати", "", "", "", "", "", "", "", "", "", "", "", ""],
            ["Витрати на оплату праці", "", "", "", "", "", "", "", "", "", "", "", ""],
            ["Відсоткові операції", "", "", "", "", "", "", "", "", "", "", "", ""],
            ["Вхідні податки", "", "", "", "", "", "", "", "", "", "", "", ""],
        ["Чистий грошовий потік від операцій", 
            "=SUM(`3_1`:`8_1`)", "=SUM(`3_2`:`8_2`)", "=SUM(`3_3`:`8_3`)", 
            "=SUM(`3_4`:`8_4`)", "=SUM(`3_5`:`8_5`)", "=SUM(`3_6`:`8_6`)", 
            "=SUM(`3_7`:`8_7`)", "=SUM(`3_8`:`8_8`)", "=SUM(`3_9`:`8_9`)", 
            "=SUM(`3_10`:`8_10`)", "=SUM(`3_11`:`8_11`)", "=SUM(`3_12`:`8_12`)"],

        ["Інвестиційна діяльність"],
            ["Продаж майна та обладнання", "", "", "", "", "", "", "", "", "", "", "", ""],
            ["Збір основної суми за позиками", "", "", "", "", "", "", "", "", "", "", "", ""],
            ["Продаж інвестиційних цінних паперів", "", "", "", "", "", "", "", "", "", "", "", ""],
            ["Купівля майна та обладнання", "", "", "", "", "", "", "", "", "", "", "", ""],
            ["Надання позик іншим суб'єктам господарювання", "", "", "", "", "", "", "", "", "", "", "", ""],
            ["Купівля інвестиційних цінних паперів", "", "", "", "", "", "", "", "", "", "", "", ""],
        ["Чистий грошовий потік від інвестиційної діяльності", 
            "=SUM(`11_1`:`16_1`)", "=SUM(`11_2`:`16_2`)", "=SUM(`11_3`:`16_3`)", 
            "=SUM(`11_4`:`16_4`)", "=SUM(`11_5`:`16_5`)", "=SUM(`11_6`:`16_6`)", 
            "=SUM(`11_7`:`16_7`)", "=SUM(`11_8`:`16_8`)", "=SUM(`11_9`:`16_9`)", 
            "=SUM(`11_10`:`16_10`)", "=SUM(`11_11`:`16_11`)", "=SUM(`11_12`:`16_12`)"],

        ["Фінансова діяльність"],
            ["Випуск акцій", "", "", "", "", "", "", "", "", "", "", "", ""],
            ["Запозичення", "", "", "", "", "", "", "", "", "", "", "", ""],
            ["Викуп акцій (казначейський)", "", "", "", "", "", "", "", "", "", "", "", ""],
            ["Погашення кредитів", "", "", "", "", "", "", "", "", "", "", "", ""],
            ["Дивіденди", "", "", "", "", "", "", "", "", "", "", "", ""],
        ["Чистий грошовий потік від фінансової діяльності", 
            "=SUM(`19_1`:`23_1`)", "=SUM(`19_2`:`23_2`)", "=SUM(`19_3`:`23_3`)", 
            "=SUM(`19_4`:`23_4`)", "=SUM(`19_5`:`23_5`)", "=SUM(`19_6`:`23_6`)", 
            "=SUM(`19_7`:`23_7`)", "=SUM(`19_8`:`23_8`)", "=SUM(`19_9`:`23_9`)", 
            "=SUM(`19_10`:`23_10`)", "=SUM(`19_11`:`23_11`)", "=SUM(`19_12`:`23_12`)"],

        ["Чисте збільшення готівки", 
            "=`9_1`+`17_1`+`24_1`", "=`9_2`+`17_2`+`24_2`", "=`9_3`+`17_3`+`24_3`", 
            "=`9_4`+`17_4`+`24_4`", "=`9_5`+`17_5`+`24_5`", "=`9_6`+`17_6`+`24_6`", 
            "=`9_7`+`17_7`+`24_7`", "=`9_8`+`17_8`+`24_8`", "=`9_9`+`17_9`+`24_9`", 
            "=`9_10`+`17_10`+`24_10`", "=`9_11`+`17_11`+`24_11`", "=`9_12`+`17_12`+`24_12`"],
        ["Готівка наприкінці року", 
            "=`1_1`+`25_1`", "=`1_2`+`25_2`", "=`1_3`+`25_3`", 
            "=`1_4`+`25_4`", "=`1_5`+`25_5`", "=`1_6`+`25_6`", 
            "=`1_7`+`25_7`", "=`1_8`+`25_8`", "=`1_9`+`25_9`", 
            "=`1_10`+`25_10`", "=`1_11`+`25_11`", "=`1_12`+`25_12`"]
    ]
}

                        }
                    ]
                }
            ]
        }
    ]
}   