{
	"name": "Рух грошових коштів (3 роки)",
	"size": {"rows": null, "cols": 4},
	"table": [
		["Рух грошових коштів", "2018", "2019", "2020"],
		["Готівка на початку року", "", "", ""],
		["Операції"],
			["Готівкові надходження від клієнтів", "", "", ""],
			["Інвентаризація закупівель", "", "", ""],
			["Загальні операційні та адміністративні витрати", "", "", ""],
			["Витрати на оплату праці", "", "", ""],
			["Відсоткові операції", "", "", ""],
			["Вхідні податки", "", "", ""],
		["Чистий рух грошових коштів від операцій", "=SUM(`3_1`:`8_1`)", "=SUM(`3_2`:`8_2`)", "=SUM(`3_3`:`8_3`)"],

		["Інвестиційна діяльність"],
			["Продаж майна та обладнання", "", "", ""],
			["Збір основної суми за позиками", "", "", ""],
			["Продаж інвестиційних цінних паперів", "", "", ""],
			["Купівля майна та обладнання", "", "", ""],
			["Надання позик іншим суб'єктам господарювання", "", "", ""],
			["Купівля інвестиційних цінних паперів", "", "", ""],
		["Чистий рух грошових коштів від інвестиційної діяльності", "=SUM(`11_1`:`16_1`)", "=SUM(`11_2`:`16_2`)", "=SUM(`11_3`:`16_3`)"],

		["Фінансова діяльність"],
			["Випуск акцій", "", "", ""],
			["Запозичення", "", "", ""],
			["Викуп акцій (казначейський)", "", "", ""],
			["Погашення кредитів", "", "", ""],
			["Дивіденди", "", "", ""],
		["Чистий рух грошових коштів від фінансової діяльності", "=SUM(`19_1`:`23_1`)", "=SUM(`19_2`:`23_2`)", "=SUM(`19_3`:`23_3`)"],

		["Чисте збільшення готівки", "=`9_1`+`17_1`+`24_1`", "=`9_2`+`17_2`+`24_2`", "=`9_3`+`17_3`+`24_3`"],
		["Готівка наприкінці року", "=`1_1`+`25_1`", "=`1_2`+`25_2`", "=`1_3`+`25_3`"]
	]
}
