{
	"name": "Рух грошових коштів (3 роки)",
	"size": {"rows": null, "cols": 4},
	"table": [
		["Рух грошових коштів ", "2018", "2019", "2020"],
		["Готівка на початку року", "-73000", "202100", "330200"],
		["Операції"],
			["Готівкові надходження від клієнтів", "80000", "800000", "1500000"],
			["Інвентаризація закупівель", "", "", ""],
			["Загальні операційні та адміністративні витрати", "155100", "186000", "196000"],
			["Витрати на оплату праці", "", "200000", "300000"],
			["Відсоткові операції", "", "", ""],
			["Вхідні податки", "", "", ""],
		["Чистий рух грошових коштів від операцій", "=`3_1`-`4_1`-`5_1`-`6_1`-`7_1`-`8_1`", "=`3_2`-`4_2`-`5_2`-`6_2`-`7_2`-`8_2`", "=`3_3`-`4_3`-`5_3`-`6_3`-`7_3`-`8_3`"],

		["Інвестиційна діяльність"],
			["Продаж майна та обладнання", "", "", ""],
			["Збір основної суми за позиками", "", "", ""],
			["Продаж інвестиційних цінних паперів", "", "", ""],
			["Купівля майна та обладнання", "40000", "20000", "20000"],
			["Надання позик іншим суб'єктам господарювання", "", "", ""],
			["Купівля інвестиційних цінних паперів", "", "", ""],
		["Чистий рух грошових коштів від інвестиційної діяльності", "=`11_1`+`12_1`+`13_1`-`14_1`-`15_1`-`16_1`", "=`11_2`+`12_2`+`13_2`-`14_2`-`15_2`-`16_2`", "=`11_3`+`12_3`+`13_3`-`14_3`-`15_3`-`16_3`"],

		["Фінансова діяльність"],
			["Випуск акцій", "", "", ""],
			["Запозичення", "", "", ""],
			["Викуп акцій (казначейський)", "", "", ""],
			["Погашення кредитів", "", "", ""],
			["Дивіденди", "", "", ""],
		["Чистий рух грошових коштів від фінансової діяльності", "=`19_1`+`20_1`-`21_1`-`22_1`-`23_1`", "=`19_2`+`20_2`-`21_2`-`22_2`-`23_2`", "=`19_3`+`20_3`-`21_3`-`22_3`-`23_3`"],

		["Чисте збільшення готівки", "=`9_1`+`17_1`+`24_1`", "=`9_2`+`17_2`+`24_2`", "=`9_3`+`17_3`+`24_3`"],
		["Готівка наприкінці року", "=`1_1`+`25_1`", "=`1_2`+`25_2`", "=`1_3`+`25_3`"],
	]
}
