{
	"name": "Прибутки і збитки (12 міс.)",
	"size": {"rows": null, "cols": 13},
	"table": [
	    ["Прибутки і збитки", "Січ", "Лют", "Бер", "Кві", "Тра", "Чер", "Лип", "Сер", "Вер", "Жов", "Лис", "Гру"],
		["Операційний дохід"],
			["Категорія 1", "", "", "", "", "", "", "", "", "", "", "", ""],
			["Категорія 2", "", "", "", "", "", "", "", "", "", "", "", ""],
			["Категорія 3", "", "", "", "", "", "", "", "", "", "", "", ""],
			["Категорія 4", "", "", "", "", "", "", "", "", "", "", "", ""],
			["Інші", "", "", "", "", "", "", "", "", "", "", "", ""],
		["Сумарний операційний дохід", 
		"=SUM(`2_1`:`6_1`)", "=SUM(`2_2`:`6_2`)", "=SUM(`2_3`:`6_3`)", 
		"=SUM(`2_4`:`6_4`)", "=SUM(`2_5`:`6_5`)", "=SUM(`2_6`:`6_6`)", 
		"=SUM(`2_7`:`6_7`)", "=SUM(`2_8`:`6_8`)", "=SUM(`2_9`:`6_9`)", 
		"=SUM(`2_10`:`6_10`)", "=SUM(`2_11`:`6_11`)", "=SUM(`2_12`:`6_12`)"],
		["Не операційний дохід"],
			["Дохід від відсотків", "", "", "", "", "", "", "", "", "", "", "", ""],
			["Дохід від оренди", "", "", "", "", "", "", "", "", "", "", "", ""],
			["Отримані подарунки", "", "", "", "", "", "", "", "", "", "", "", ""],
			["Пожертвування", "", "", "", "", "", "", "", "", "", "", "", ""],
			["Інші", "", "", "", "", "", "", "", "", "", "", "", ""],
		["Сумарний не операційний дохід", 
		"=SUM(`9_1`:`13_1`)", "=SUM(`9_2`:`13_2`)", "=SUM(`9_3`:`13_3`)",
		"=SUM(`9_4`:`13_4`)", "=SUM(`9_5`:`13_5`)", "=SUM(`9_6`:`13_6`)",
		"=SUM(`9_7`:`13_7`)", "=SUM(`9_8`:`13_8`)", "=SUM(`9_9`:`13_9`)",
		"=SUM(`9_10`:`13_10`)", "=SUM(`9_11`:`13_11`)", "=SUM(`9_12`:`13_12`)"],
		["Сумарний дохід", 
		"=`7_1`+`14_1`", "=`7_2`+`14_2`", "=`7_3`+`14_3`",
		"=`7_4`+`14_4`", "=`7_5`+`14_5`", "=`7_6`+`14_6`",
		"=`7_7`+`14_7`", "=`7_8`+`14_8`", "=`7_9`+`14_9`",
		"=`7_10`+`14_10`", "=`7_11`+`14_11`", "=`7_12`+`14_12`"],
		["Операційні витрати"],
			["Бухгалтерські і юридичні", "", "", "", "", "", "", "", "", "", "", "", ""],
			["Реклама", "", "", "", "", "", "", "", "", "", "", "", ""],
			["Амортизація", "", "", "", "", "", "", "", "", "", "", "", ""],
			["Збори та передплати", "", "", "", "", "", "", "", "", "", "", "", ""],
			["Страхування", "", "", "", "", "", "", "", "", "", "", "", ""],
			["Витрати на сплату відсотків", "", "", "", "", "", "", "", "", "", "", "", ""],
			["Технічне обслуговування та ремонт", "", "", "", "", "", "", "", "", "", "", "", ""],
			["Офісне приладдя", "", "", "", "", "", "", "", "", "", "", "", ""],
			["Витрати на заробітну плату", "", "", "", "", "", "", "", "", "", "", "", ""],
			["Поштовий збір", "", "", "", "", "", "", "", "", "", "", "", ""],
			["Оренда", "", "", "", "", "", "", "", "", "", "", "", ""],
			["Дослідження та розвиток", "", "", "", "", "", "", "", "", "", "", "", ""],
			["Заробітна плата", "", "", "", "", "", "", "", "", "", "", "", ""],
			["Податки та ліцензії", "", "", "", "", "", "", "", "", "", "", "", ""],
			["Телефон", "", "", "", "", "", "", "", "", "", "", "", ""],
			["Подорожі", "", "", "", "", "", "", "", "", "", "", "", ""],
			["Комунальні послуги", "", "", "", "", "", "", "", "", "", "", "", ""],
			["Веб-хостинг і домени", "", "", "", "", "", "", "", "", "", "", "", ""],
			["Інші", "", "", "", "", "", "", "", "", "", "", "", ""],
		["Сумарні операційні витрати", 
		"=SUM(`17_1`:`35_1`)", "=SUM(`17_2`:`35_2`)", "=SUM(`17_3`:`35_3`)",
		"=SUM(`17_4`:`35_4`)", "=SUM(`17_5`:`35_5`)", "=SUM(`17_6`:`35_6`)",
		"=SUM(`17_7`:`35_7`)", "=SUM(`17_8`:`35_8`)", "=SUM(`17_9`:`35_9`)",
		"=SUM(`17_10`:`35_10`)", "=SUM(`17_11`:`35_11`)", "=SUM(`17_12`:`35_12`)"],
		["Одноразові витрати"],
			["Меблі, обладнання та програмне забезпечення", "", "", "", "", "", "", "", "", "", "", "", ""],
			["Подарки", "", "", "", "", "", "", "", "", "", "", "", ""],
			["Інші", "", "", "", "", "", "", "", "", "", "", "", ""],
		["Сумарні одноразові витрати", 
		"=SUM(`38_1`:`40_1`)", "=SUM(`38_2`:`40_2`)", "=SUM(`38_3`:`40_3`)",
		"=SUM(`38_4`:`40_4`)", "=SUM(`38_5`:`40_5`)", "=SUM(`38_6`:`40_6`)",
		"=SUM(`38_7`:`40_7`)", "=SUM(`38_8`:`40_8`)", "=SUM(`38_9`:`40_9`)",
		"=SUM(`38_10`:`40_10`)", "=SUM(`38_11`:`40_11`)", "=SUM(`38_12`:`40_12`)"],
		["Сумарні витрати", 
		"=`36_1`+`41_1`", "=`36_2`+`41_2`", "=`36_3`+`41_3`",
		"=`36_4`+`41_4`", "=`36_5`+`41_5`", "=`36_6`+`41_6`",
		"=`36_7`+`41_7`", "=`36_8`+`41_8`", "=`36_9`+`41_9`",
		"=`36_10`+`41_10`", "=`36_11`+`41_11`", "=`36_12`+`41_12`"],
		["Чистий дохід до оподаткування", 
		"=`15_1`-`42_1`", "=`15_2`-`42_2`", "=`15_3`-`42_3`",
		"=`15_4`-`42_4`", "=`15_5`-`42_5`", "=`15_6`-`42_6`",
		"=`15_7`-`42_7`", "=`15_8`-`42_8`", "=`15_9`-`42_9`",
		"=`15_10`-`42_10`", "=`15_11`-`42_11`", "=`15_12`-`42_12`"],
		["Витрати з податку на дохід", "", "", "", "", "", "", "", "", "", "", "", ""],
		["Чистий дохід", 
		"=`43_1`-`44_1`", "=`43_2`-`44_2`", "=`43_3`-`44_3`",
		"=`43_4`-`44_4`", "=`43_5`-`44_5`", "=`43_6`-`44_6`",
		"=`43_7`-`44_7`", "=`43_8`-`44_8`", "=`43_9`-`44_9`",
		"=`43_10`-`44_10`", "=`43_11`-`44_11`", "=`43_12`-`44_12`"],
		["Розподіл власників / дивіденди", "", "", "", "", "", "", "", "", "", "", "", ""],
		["Коригування нерозподіленого прибутку", 
		"=`45_1`-`46_1`", "=`45_2`-`46_2`", "=`45_3`-`46_3`",
		"=`45_4`-`46_4`", "=`45_5`-`46_5`", "=`45_6`-`46_6`",
		"=`45_7`-`46_7`", "=`45_8`-`46_8`", "=`45_9`-`46_9`",
		"=`45_10`-`46_10`", "=`45_11`-`46_11`", "=`45_12`-`46_12`"]	
	]
}
